,cop_x,cop_y
0,-7.229,-14.5796
1,-7.2354,-14.5739
2,-7.2721,-14.5414
3,-7.3602,-14.4601
4,-7.4686,-14.3401
5,-7.5233,-14.2196
6,-7.4894,-14.1289
7,-7.3995,-14.0768
8,-7.2999,-14.0511
9,-7.2193,-14.0144
10,-7.1849,-13.9326
11,-7.2217,-13.8221
12,-7.3286,-13.7339
13,-7.4621,-13.6954
14,-7.5464,-13.7057
15,-7.525,-13.7586
16,-7.4181,-13.8316
17,-7.309,-13.8766
18,-7.2545,-13.8535
19,-7.2475,-13.7621
20,-7.2663,-13.6361
21,-7.3065,-13.5161
22,-7.3576,-13.4195
23,-7.3896,-13.3178
24,-7.3894,-13.1754
25,-7.4067,-13.0063
26,-7.5193,-12.8549
27,-7.7307,-12.7591
28,-7.9424,-12.7414
29,-8.065,-12.7883
30,-8.1158,-12.8413
31,-8.1568,-12.8284
32,-8.1889,-12.7123
33,-8.1938,-12.5269
34,-8.2262,-12.3488
35,-8.3655,-12.225
36,-8.6049,-12.1458
37,-8.8592,-12.0692
38,-9.0575,-11.9594
39,-9.1881,-11.8107
40,-9.2993,-11.6433
41,-9.463,-11.4809
42,-9.6834,-11.3409
43,-9.8886,-11.2525
44,-10.0453,-11.2551
45,-10.1949,-11.331
46,-10.3724,-11.3846
47,-10.5713,-11.3524
48,-10.7664,-11.2733
49,-10.924,-11.2159
50,-10.9905,-11.2125
51,-10.9083,-11.266
52,-10.6924,-11.3487
53,-10.4566,-11.4064
54,-10.3322,-11.4111
55,-10.3858,-11.3808
56,-10.5823,-11.343
57,-10.7982,-11.3177
58,-10.9102,-11.3057
59,-10.8912,-11.2637
60,-10.8158,-11.1656
61,-10.7687,-11.0791
62,-10.7657,-11.0945
63,-10.7759,-11.2199
64,-10.7734,-11.392
65,-10.7434,-11.5432
66,-10.6827,-11.6475
67,-10.6134,-11.7285
68,-10.5668,-11.826
69,-10.5533,-11.9441
70,-10.5531,-12.0351
71,-10.5302,-12.0591
72,-10.4671,-12.0393
73,-10.3966,-12.0368
74,-10.3817,-12.0911
75,-10.4207,-12.177
76,-10.403,-12.2103
77,-10.2394,-12.1424
78,-9.987,-12.049
79,-9.7665,-12.0672
80,-9.6265,-12.2341
81,-9.5523,-12.4341
82,-9.5493,-12.5389
83,-9.6341,-12.5428
84,-9.7436,-12.5252
85,-9.7586,-12.5427
86,-9.6414,-12.5971
87,-9.4591,-12.6745
88,-9.2792,-12.7711
89,-9.1244,-12.8761
90,-9.0127,-12.9525
91,-8.975,-12.9555
92,-9.0277,-12.8836
93,-9.1396,-12.7907
94,-9.2383,-12.7412
95,-9.2636,-12.7599
96,-9.1938,-12.8068
97,-9.051,-12.8123
98,-8.9214,-12.7687
99,-8.9091,-12.761
100,-9.0364,-12.8699
101,-9.2215,-13.0617
102,-9.3534,-13.205
103,-9.3739,-13.1965
104,-9.2957,-13.0597
105,-9.1725,-12.9179
106,-9.0655,-12.8824
107,-9.0209,-12.9725
108,-9.0497,-13.1302
109,-9.1215,-13.2938
110,-9.1696,-13.436
111,-9.1306,-13.5312
112,-9.0197,-13.5363
113,-8.9323,-13.434
114,-8.9387,-13.2683
115,-9.0131,-13.1147
116,-9.0715,-13.0235
117,-9.0566,-12.9954
118,-8.9877,-12.9997
119,-8.94,-13.0226
120,-8.9557,-13.08
121,-8.9799,-13.1794
122,-8.9311,-13.2944
123,-8.8077,-13.3791
124,-8.6819,-13.4103
125,-8.6195,-13.4108
126,-8.6354,-13.4233
127,-8.707,-13.481
128,-8.7925,-13.6067
129,-8.8438,-13.8039
130,-8.8245,-14.0421
131,-8.7422,-14.2598
132,-8.6627,-14.3928
133,-8.6553,-14.4157
134,-8.7263,-14.3544
135,-8.8241,-14.2695
136,-8.8893,-14.2246
137,-8.8967,-14.2408
138,-8.8608,-14.284
139,-8.815,-14.3089
140,-8.8021,-14.3054
141,-8.8609,-14.3118
142,-8.9774,-14.3777
143,-9.0778,-14.509
144,-9.1129,-14.6681
145,-9.1066,-14.8025
146,-9.1142,-14.8701
147,-9.1671,-14.8706
148,-9.2445,-14.8338
149,-9.3084,-14.7729
150,-9.3484,-14.6838
151,-9.3628,-14.585
152,-9.3448,-14.5353
153,-9.311,-14.5751
154,-9.3065,-14.6457
155,-9.3499,-14.6386
156,-9.3868,-14.5198
157,-9.3534,-14.3505
158,-9.2705,-14.2119
159,-9.2106,-14.1489
160,-9.2042,-14.1544
161,-9.2284,-14.1883
162,-9.2544,-14.2233
163,-9.2682,-14.2553
164,-9.2593,-14.269
165,-9.2222,-14.2516
166,-9.159,-14.2267
167,-9.0706,-14.2039
168,-8.9803,-14.1521
169,-8.9439,-14.0798
170,-8.994,-14.0642
171,-9.1169,-14.1572
172,-9.2692,-14.3141
173,-9.3809,-14.4333
174,-9.3936,-14.4574
175,-9.308,-14.42
176,-9.174,-14.3995
177,-9.0551,-14.4515
178,-9.0074,-14.5819
179,-9.0408,-14.7559
180,-9.0908,-14.9127
181,-9.0817,-14.9967
182,-9.0054,-14.9923
183,-8.8995,-14.927
184,-8.7999,-14.8514
185,-8.7368,-14.8083
186,-8.7283,-14.7981
187,-8.7399,-14.7904
188,-8.6893,-14.7694
189,-8.5474,-14.746
190,-8.3992,-14.7442
191,-8.3498,-14.7745
192,-8.412,-14.8156
193,-8.5172,-14.8471
194,-8.5768,-14.8746
195,-8.5253,-14.889
196,-8.3749,-14.8424
197,-8.2183,-14.7158
198,-8.1385,-14.5631
199,-8.1307,-14.432
200,-8.121,-14.3245
201,-8.0534,-14.2551
202,-7.9508,-14.2568
203,-7.8936,-14.3373
204,-7.9331,-14.4398
205,-8.0157,-14.4522
206,-8.0218,-14.3063
207,-7.9158,-14.0526
208,-7.8098,-13.814
209,-7.8357,-13.6785
210,-8.001,-13.6438
211,-8.1948,-13.6604
212,-8.302,-13.7032
213,-8.2917,-13.7858
214,-8.2083,-13.8932
215,-8.0994,-13.9388
216,-7.9944,-13.8527
217,-7.9411,-13.6737
218,-7.9832,-13.5074
219,-8.0942,-13.4306
220,-8.1872,-13.4479
221,-8.2015,-13.5077
222,-8.1572,-13.5535
223,-8.1308,-13.5716
224,-8.1882,-13.5846
225,-8.3286,-13.6078
226,-8.4951,-13.6342
227,-8.6512,-13.6527
228,-8.797,-13.6639
229,-8.899,-13.6782
230,-8.895,-13.7012
231,-8.7666,-13.7258
232,-8.5582,-13.7284
233,-8.3662,-13.6886
234,-8.29,-13.641
235,-8.3351,-13.6646
236,-8.4118,-13.7769
237,-8.4416,-13.8883
238,-8.4266,-13.8887
239,-8.4209,-13.7354
240,-8.4518,-13.4655
241,-8.4951,-13.1726
242,-8.516,-12.9703
243,-8.4949,-12.9349
244,-8.4393,-13.0443
245,-8.3795,-13.1868
246,-8.3326,-13.2649
247,-8.2896,-13.2777
248,-8.2511,-13.2681
249,-8.2401,-13.233
250,-8.2685,-13.1421
251,-8.3312,-12.995
252,-8.4415,-12.8397
253,-8.5919,-12.7558
254,-8.6806,-12.791
255,-8.6143,-12.9125
256,-8.461,-13.0381
257,-8.3579,-13.1003
258,-8.3458,-13.0789
259,-8.3875,-12.9993
260,-8.4386,-12.8967
261,-8.468,-12.7863
262,-8.4774,-12.6816
263,-8.4888,-12.6082
264,-8.5033,-12.5832
265,-8.5031,-12.602
266,-8.4875,-12.6534
267,-8.4785,-12.7211
268,-8.5004,-12.7661
269,-8.55,-12.7512
270,-8.586,-12.693
271,-8.594,-12.6393
272,-8.6268,-12.5951
273,-8.7248,-12.5365
274,-8.8623,-12.472
275,-8.9813,-12.4292
276,-9.0344,-12.4238
277,-9.0238,-12.4589
278,-8.9903,-12.5141
279,-8.9594,-12.5561
280,-8.9288,-12.5784
281,-8.8891,-12.5942
282,-8.843,-12.5982
283,-8.8203,-12.5735
284,-8.8589,-12.5288
285,-8.9698,-12.4838
286,-9.1245,-12.4254
287,-9.2555,-12.3248
288,-9.2952,-12.1853
289,-9.2498,-12.0468
290,-9.1873,-11.9559
291,-9.1542,-11.9377
292,-9.1504,-11.9728
293,-9.1538,-12.0007
294,-9.1378,-11.9709
295,-9.0922,-11.8894
296,-9.0399,-11.8087
297,-9.0173,-11.7684
298,-9.0247,-11.7603
299,-9.0275,-11.7489
300,-9.0027,-11.7028
301,-8.949,-11.6148
302,-8.883,-11.5096
303,-8.8302,-11.4261
304,-8.7985,-11.3869
305,-8.79,-11.383
306,-8.8196,-11.3869
307,-8.8777,-11.3782
308,-8.9028,-11.355
309,-8.8335,-11.3274
310,-8.6909,-11.3114
311,-8.5788,-11.3139
312,-8.5711,-11.3099
313,-8.6342,-11.2599
314,-8.6819,-11.1584
315,-8.6721,-11.0371
316,-8.6251,-10.9192
317,-8.5593,-10.8144
318,-8.4597,-10.7551
319,-8.3342,-10.7663
320,-8.2526,-10.8069
321,-8.2637,-10.8041
322,-8.3158,-10.7195
323,-8.3277,-10.5598
324,-8.2871,-10.3612
325,-8.2268,-10.1743
326,-8.1599,-10.043
327,-8.0799,-9.9829
328,-7.9974,-9.9864
329,-7.9297,-10.0401
330,-7.8744,-10.1054
331,-7.8335,-10.1097
332,-7.8304,-10.0121
333,-7.9002,-9.8493
334,-8.0805,-9.6972
335,-8.3353,-9.6078
336,-8.5056,-9.5852
337,-8.4645,-9.6024
338,-8.2644,-9.618
339,-8.0509,-9.5818
340,-7.9176,-9.4715
341,-7.8706,-9.3215
342,-7.8641,-9.1843
343,-7.8459,-9.0741
344,-7.8056,-8.9806
345,-7.7877,-8.9199
346,-7.8414,-8.9232
347,-7.9576,-8.9713
348,-8.0592,-8.9753
349,-8.0554,-8.8472
350,-7.9242,-8.5966
351,-7.7593,-8.3439
352,-7.6985,-8.2199
353,-7.7782,-8.2572
354,-7.9043,-8.373
355,-7.9732,-8.4489
356,-7.9687,-8.4233
357,-7.949,-8.3012
358,-7.9602,-8.1338
359,-7.9831,-8.0075
360,-7.9865,-7.977
361,-7.98,-8.0
362,-7.9858,-7.995
363,-7.9994,-7.9499
364,-7.9919,-7.9236
365,-7.9381,-7.9504
366,-7.8369,-7.988
367,-7.7021,-7.9734
368,-7.5746,-7.909
369,-7.5193,-7.8489
370,-7.5442,-7.8222
371,-7.5824,-7.8362
372,-7.5992,-7.9074
373,-7.6243,-8.0183
374,-7.6583,-8.1034
375,-7.6461,-8.1334
376,-7.5627,-8.1708
377,-7.4619,-8.2812
378,-7.427,-8.4223
379,-7.4847,-8.4936
380,-7.5968,-8.4743
381,-7.7304,-8.4494
382,-7.8583,-8.5016
383,-7.9216,-8.6202
384,-7.8885,-8.7291
385,-7.8105,-8.7757
386,-7.765,-8.7716
387,-7.7721,-8.7603
388,-7.785,-8.7722
389,-7.7542,-8.8119
390,-7.6945,-8.8638
391,-7.6699,-8.9076
392,-7.7224,-8.9372
393,-7.8331,-8.9676
394,-7.9396,-9.0195
395,-7.9947,-9.0918
396,-8.0045,-9.1645
397,-7.9853,-9.2242
398,-7.9381,-9.2585
399,-7.8894,-9.2565
400,-7.8759,-9.2286
401,-7.8947,-9.1981
402,-7.9288,-9.1784
403,-7.9982,-9.1693
404,-8.1176,-9.1607
405,-8.2348,-9.1494
406,-8.2889,-9.1583
407,-8.2788,-9.2113
408,-8.2272,-9.2885
409,-8.1557,-9.3403
410,-8.1213,-9.3459
411,-8.1834,-9.3292
412,-8.3185,-9.3231
413,-8.4439,-9.3491
414,-8.52,-9.4236
415,-8.5636,-9.5475
416,-8.5789,-9.6834
417,-8.548,-9.769
418,-8.4874,-9.7677
419,-8.4555,-9.6982
420,-8.4745,-9.61
421,-8.5115,-9.5522
422,-8.5545,-9.5592
423,-8.6151,-9.6249
424,-8.6775,-9.7006
425,-8.7277,-9.75
426,-8.7767,-9.7666
427,-8.8103,-9.7359
428,-8.7797,-9.6425
429,-8.6711,-9.5051
430,-8.5494,-9.3714
431,-8.493,-9.2779
432,-8.508,-9.2152
433,-8.5478,-9.1685
434,-8.5689,-9.1759
435,-8.5489,-9.2686
436,-8.507,-9.3908
437,-8.4864,-9.449
438,-8.4819,-9.3905
439,-8.4552,-9.2343
440,-8.4313,-9.0624
441,-8.4726,-8.9475
442,-8.5765,-8.8955
443,-8.6776,-8.878
444,-8.7143,-8.8796
445,-8.6603,-8.8954
446,-8.5434,-8.8994
447,-8.4485,-8.8528
448,-8.4464,-8.758
449,-8.5222,-8.6658
450,-8.6019,-8.6042
451,-8.6145,-8.5417
452,-8.5388,-8.4506
453,-8.4314,-8.3626
454,-8.3761,-8.3226
455,-8.3914,-8.324
456,-8.4257,-8.3209
457,-8.4345,-8.2821
458,-8.4284,-8.2107
459,-8.4479,-8.1149
460,-8.5022,-8.0099
461,-8.557,-7.949
462,-8.5702,-7.9748
463,-8.5144,-8.0621
464,-8.3987,-8.1546
465,-8.2701,-8.2094
466,-8.1701,-8.208
467,-8.1107,-8.1476
468,-8.0869,-8.0307
469,-8.0841,-7.887
470,-8.0819,-7.7779
471,-8.0657,-7.7432
472,-8.0384,-7.7711
473,-8.0135,-7.8279
474,-7.9922,-7.8837
475,-7.9691,-7.9073
476,-7.9583,-7.8843
477,-7.97,-7.8435
478,-7.9634,-7.8207
479,-7.8914,-7.8132
480,-7.7894,-7.7869
481,-7.739,-7.7175
482,-7.7584,-7.6228
483,-7.7914,-7.5466
484,-7.7821,-7.5141
485,-7.7236,-7.5182
486,-7.6465,-7.5449
487,-7.5818,-7.589
488,-7.5478,-7.6463
489,-7.5608,-7.7177
490,-7.6268,-7.8007
491,-7.7223,-7.8587
492,-7.7915,-7.8407
493,-7.7906,-7.7475
494,-7.7431,-7.6467
495,-7.7147,-7.6128
496,-7.7397,-7.6736
497,-7.7849,-7.7939
498,-7.7737,-7.8834
499,-7.6822,-7.8704
500,-7.5859,-7.7933
501,-7.5696,-7.7577
502,-7.6328,-7.8136
503,-7.7083,-7.9213
504,-7.7513,-8.0135
505,-7.7718,-8.0448
506,-7.7762,-7.9946
507,-7.7463,-7.8839
508,-7.6952,-7.788
509,-7.6725,-7.7876
510,-7.6914,-7.9122
511,-7.7156,-8.1215
512,-7.7292,-8.3139
513,-7.7456,-8.3839
514,-7.7605,-8.309
515,-7.7612,-8.1672
516,-7.7601,-8.0649
517,-7.7879,-8.0701
518,-7.8594,-8.1999
519,-7.9344,-8.4039
520,-7.9349,-8.5682
521,-7.8289,-8.6116
522,-7.6778,-8.5619
523,-7.5947,-8.5
524,-7.6511,-8.4696
525,-7.806,-8.4566
526,-7.94,-8.4279
527,-7.9714,-8.3904
528,-7.9159,-8.3956
529,-7.8425,-8.47
530,-7.809,-8.574
531,-7.8306,-8.6442
532,-7.8784,-8.6491
533,-7.9078,-8.6266
534,-7.8963,-8.6762
535,-7.8453,-8.858
536,-7.7845,-9.0957
537,-7.7957,-9.2396
538,-7.923,-9.2147
539,-8.0649,-9.0687
540,-8.0924,-8.9232
541,-8.0127,-8.8924
542,-7.9227,-9.0011
543,-7.8874,-9.1767
544,-7.9092,-9.3126
545,-7.951,-9.3316
546,-7.9746,-9.2472
547,-7.9807,-9.1687
548,-8.0084,-9.2016
549,-8.0825,-9.3598
550,-8.1554,-9.5817
551,-8.1345,-9.7829
552,-8.0062,-9.8873
553,-7.8796,-9.8665
554,-7.8625,-9.7697
555,-7.9622,-9.684
556,-8.1191,-9.6677
557,-8.2523,-9.7205
558,-8.2905,-9.7981
559,-8.2323,-9.8521
560,-8.1415,-9.8683
561,-8.083,-9.8647
562,-8.0928,-9.8537
563,-8.1688,-9.8358
564,-8.2712,-9.8257
565,-8.3493,-9.853
566,-8.371,-9.9479
567,-8.3457,-10.1137
568,-8.3176,-10.2938
569,-8.3228,-10.4035
570,-8.3667,-10.4015
571,-8.4265,-10.3202
572,-8.4612,-10.2232
573,-8.4383,-10.1528
574,-8.3686,-10.1321
575,-8.3013,-10.1786
576,-8.2722,-10.2724
577,-8.2844,-10.342
578,-8.3346,-10.3501
579,-8.4172,-10.3672
580,-8.5187,-10.4605
581,-8.6371,-10.5575
582,-8.7745,-10.541
583,-8.89,-10.4085
584,-8.9421,-10.266
585,-8.9794,-10.2328
586,-9.0764,-10.3465
587,-9.2147,-10.526
588,-9.3258,-10.6631
589,-9.3903,-10.7177
590,-9.4266,-10.7038
591,-9.4407,-10.6503
592,-9.4364,-10.5946
593,-9.42,-10.5672
594,-9.3781,-10.5648
595,-9.3068,-10.5571
596,-9.2527,-10.5296
597,-9.3,-10.4974
598,-9.4996,-10.465
599,-9.782,-10.4255
600,-9.9972,-10.4206
601,-10.049,-10.5174
602,-9.9315,-10.7056
603,-9.7103,-10.8882
604,-9.4969,-10.9717
605,-9.4118,-10.9297
606,-9.5413,-10.8058
607,-9.8483,-10.6899
608,-10.1454,-10.6691
609,-10.2466,-10.7712
610,-10.1314,-10.957
611,-9.9279,-11.1726
612,-9.7774,-11.3834
613,-9.7381,-11.5485
614,-9.7681,-11.6241
615,-9.7811,-11.612
616,-9.7286,-11.5667
617,-9.6321,-11.5528
618,-9.5538,-11.5976
619,-9.5401,-11.6807
620,-9.5736,-11.7838
621,-9.588,-11.9298
622,-9.5487,-12.1248
623,-9.4804,-12.2999
624,-9.3989,-12.3692
625,-9.3037,-12.3214
626,-9.2366,-12.2328
627,-9.2412,-12.1809
628,-9.2765,-12.1597
629,-9.2428,-12.1289
630,-9.0864,-12.0974
631,-8.8664,-12.1108
632,-8.7001,-12.2037
633,-8.6309,-12.3718
634,-8.5935,-12.562
635,-8.5323,-12.6967
636,-8.4776,-12.7303
637,-8.4844,-12.6871
638,-8.5571,-12.6344
639,-8.6325,-12.6217
640,-8.6273,-12.6547
641,-8.5295,-12.7152
642,-8.4099,-12.7778
643,-8.3359,-12.8099
644,-8.3237,-12.7978
645,-8.3697,-12.783
646,-8.4617,-12.8225
647,-8.5512,-12.9215
648,-8.5703,-13.0428
649,-8.4872,-13.1539
650,-8.3337,-13.2382
651,-8.192,-13.2915
652,-8.152,-13.3396
653,-8.2445,-13.42
654,-8.3952,-13.5126
655,-8.4649,-13.5397
656,-8.3603,-13.4606
657,-8.123,-13.325
658,-7.897,-13.2329
659,-7.7981,-13.2581
660,-7.8369,-13.3924
661,-7.9458,-13.5457
662,-8.049,-13.6206
663,-8.1063,-13.5969
664,-8.1068,-13.5395
665,-8.0626,-13.5342
666,-8.0171,-13.6126
667,-8.0088,-13.7335
668,-8.0277,-13.8229
669,-8.0363,-13.8271
670,-8.0083,-13.7482
671,-7.944,-13.6325
672,-7.8716,-13.523
673,-7.819,-13.4416
674,-7.7845,-13.389
675,-7.7514,-13.3432
676,-7.7198,-13.2835
677,-7.7078,-13.2159
678,-7.7385,-13.1531
679,-7.8172,-13.087
680,-7.883,-13.0126
681,-7.8443,-12.9506
682,-7.714,-12.9132
683,-7.6078,-12.8832
684,-7.5921,-12.8492
685,-7.6506,-12.8223
686,-7.7767,-12.8072
687,-7.9645,-12.783
688,-8.1301,-12.7339
689,-8.1594,-12.6786
690,-8.029,-12.647
691,-7.8235,-12.649
692,-7.6644,-12.6694
693,-7.6376,-12.6799
694,-7.7396,-12.6598
695,-7.8643,-12.6131
696,-7.8727,-12.5594
697,-7.7357,-12.5072
698,-7.5816,-12.4473
699,-7.5487,-12.3753
700,-7.652,-12.307
701,-7.8074,-12.2639
702,-7.8993,-12.2462
703,-7.8503,-12.2352
704,-7.7064,-12.2223
705,-7.6038,-12.2137
706,-7.6199,-12.216
707,-7.7295,-12.2355
708,-7.8738,-12.2808
709,-7.9827,-12.3438
710,-7.991,-12.3826
711,-7.9047,-12.3514
712,-7.7918,-12.2462
713,-7.6951,-12.1115
714,-7.6343,-12.0104
715,-7.6586,-11.9843
716,-7.7885,-12.0258
717,-7.9586,-12.0988
718,-8.074,-12.18
719,-8.0636,-12.2617
720,-7.9054,-12.3403
721,-7.6811,-12.414
722,-7.5443,-12.4748
723,-7.5745,-12.5053
724,-7.7016,-12.4894
725,-7.7705,-12.4411
726,-7.7006,-12.4204
727,-7.5959,-12.4804
728,-7.6192,-12.606
729,-7.7946,-12.7385
730,-8.0249,-12.8387
731,-8.2181,-12.9073
732,-8.3201,-12.9657
733,-8.3047,-13.0261
734,-8.2103,-13.0759
735,-8.1182,-13.0968
736,-8.0362,-13.1041
737,-7.9221,-13.1359
738,-7.8266,-13.1928
739,-7.8579,-13.2354
740,-8.0339,-13.2287
741,-8.2557,-13.1621
742,-8.3958,-13.0549
743,-8.4041,-12.9562
744,-8.335,-12.9133
745,-8.2818,-12.9381
746,-8.3084,-13.0028
747,-8.4121,-13.0616
748,-8.526,-13.0824
749,-8.5857,-13.0636
750,-8.589,-13.0174
751,-8.5715,-12.9556
752,-8.5486,-12.8873
753,-8.5031,-12.8213
754,-8.4194,-12.7767
755,-8.3219,-12.7703
756,-8.2791,-12.7954
757,-8.3503,-12.8237
758,-8.5191,-12.8202
759,-8.6789,-12.7822
760,-8.7045,-12.7696
761,-8.5598,-12.8513
762,-8.3377,-13.0152
763,-8.1961,-13.1623
764,-8.2338,-13.2036
765,-8.4107,-13.1379
766,-8.597,-13.0183
767,-8.6862,-12.876
768,-8.6603,-12.7074
769,-8.5898,-12.5216
770,-8.5725,-12.3709
771,-8.64,-12.3039
772,-8.7289,-12.3116
773,-8.7696,-12.347
774,-8.7835,-12.3653
775,-8.8383,-12.3386
776,-8.9462,-12.2572
777,-9.0624,-12.1296
778,-9.1419,-11.9882
779,-9.1546,-11.8652
780,-9.0712,-11.7522
781,-8.9056,-11.6372
782,-8.7511,-11.5578
783,-8.7187,-11.5556
784,-8.841,-11.6232
785,-9.0393,-11.7148
786,-9.2078,-11.7756
787,-9.3162,-11.777
788,-9.392,-11.7348
789,-9.4669,-11.6944
790,-9.5539,-11.6908
791,-9.6221,-11.7192
792,-9.6194,-11.7542
793,-9.5495,-11.7786
794,-9.4773,-11.788
795,-9.452,-11.7807
796,-9.4644,-11.7401
797,-9.476,-11.6602
798,-9.456,-11.5892
799,-9.416,-11.5684
800,-9.4193,-11.5335
801,-9.5091,-11.3964
802,-9.6443,-11.1936
803,-9.752,-11.0404
804,-9.8075,-10.9885
805,-9.8234,-11.0016
806,-9.8139,-11.029
807,-9.8169,-11.0576
808,-9.8678,-11.0771
809,-9.9051,-11.0494
810,-9.8066,-10.9787
811,-9.5435,-10.9296
812,-9.248,-10.9186
813,-9.1178,-10.8683
814,-9.2376,-10.7213
815,-9.5072,-10.5355
816,-9.7425,-10.4064
817,-9.8263,-10.3586
818,-9.7769,-10.369
819,-9.6929,-10.4246
820,-9.6614,-10.5071
821,-9.7172,-10.5778
822,-9.8328,-10.6144
823,-9.9353,-10.6296
824,-9.9573,-10.6425
825,-9.8916,-10.6507
826,-9.7937,-10.6369
827,-9.7216,-10.5994
828,-9.7059,-10.5705
829,-9.772,-10.594
830,-9.9166,-10.6853
831,-10.0698,-10.7942
832,-10.1589,-10.8304
833,-10.1678,-10.7792
834,-10.0878,-10.7266
835,-9.9054,-10.7381
836,-9.6604,-10.8015
837,-9.451,-10.8833
838,-9.3746,-10.971
839,-9.4594,-11.0584
840,-9.6532,-11.133
841,-9.875,-11.1955
842,-10.039,-11.268
843,-10.0718,-11.3649
844,-9.9664,-11.4685
845,-9.8157,-11.5474
846,-9.7512,-11.5897
847,-9.8315,-11.6034
848,-10.0072,-11.5957
849,-10.1637,-11.5878
850,-10.1915,-11.6257
851,-10.0763,-11.7158
852,-9.9126,-11.7927
853,-9.8144,-11.795
854,-9.8497,-11.7336
855,-10.0204,-11.6731
856,-10.2441,-11.6653
857,-10.3704,-11.7094
858,-10.273,-11.7803
859,-9.982,-11.8661
860,-9.6954,-11.9637
861,-9.5813,-12.0699
862,-9.6212,-12.1773
863,-9.701,-12.2606
864,-9.761,-12.2891
865,-9.8024,-12.2631
866,-9.8364,-12.2211
867,-9.8781,-12.2091
868,-9.9382,-12.2454
869,-9.9931,-12.3105
870,-9.9928,-12.3761
871,-9.9289,-12.4228
872,-9.8654,-12.4235
873,-9.8765,-12.3712
874,-9.9747,-12.3268
875,-10.106,-12.3716
876,-10.1966,-12.5143
877,-10.1873,-12.6807
878,-10.0694,-12.7988
879,-9.9094,-12.8754
880,-9.7934,-12.9472
881,-9.7524,-12.9893
882,-9.7713,-12.9498
883,-9.8266,-12.8341
884,-9.884,-12.696
885,-9.8896,-12.575
886,-9.8081,-12.4835
887,-9.6784,-12.4248
888,-9.603,-12.3934
889,-9.6566,-12.3739
890,-9.7927,-12.3393
891,-9.8691,-12.2521
892,-9.7837,-12.1017
893,-9.5582,-11.9398
894,-9.2914,-11.8484
895,-9.0831,-11.8575
896,-8.992,-11.9087
897,-9.0022,-11.917
898,-9.0438,-11.8569
899,-9.0695,-11.7703
900,-9.0763,-11.7096
901,-9.0701,-11.6981
902,-9.0556,-11.7144
903,-9.0431,-11.699
904,-9.0253,-11.6203
905,-8.9738,-11.5285
906,-8.8904,-11.4946
907,-8.8115,-11.5111
908,-8.7491,-11.4885
909,-8.689,-11.3665
910,-8.6327,-11.1965
911,-8.595,-11.0654
912,-8.5814,-10.9942
913,-8.5889,-10.9665
914,-8.6037,-10.9721
915,-8.5964,-10.9819
916,-8.5373,-10.9444
917,-8.4239,-10.8254
918,-8.296,-10.6375
919,-8.2048,-10.445
920,-8.1588,-10.3226
921,-8.1159,-10.2846
922,-8.0303,-10.2764
923,-7.9118,-10.2541
924,-7.8381,-10.2139
925,-7.8597,-10.1472
926,-7.9016,-10.0405
927,-7.8415,-9.9106
928,-7.6707,-9.7923
929,-7.4905,-9.7044
930,-7.3785,-9.6403
931,-7.3329,-9.5806
932,-7.3156,-9.516
933,-7.2901,-9.458
934,-7.2502,-9.419
935,-7.2282,-9.3872
936,-7.2419,-9.3449
937,-7.2499,-9.3117
938,-7.1886,-9.3296
939,-7.0445,-9.3972
940,-6.8767,-9.4711
941,-6.7624,-9.5269
942,-6.725,-9.5665
943,-6.7274,-9.5884
944,-6.7166,-9.5929
945,-6.6561,-9.5927
946,-6.5429,-9.6071
947,-6.4238,-9.6557
948,-6.3691,-9.7447
949,-6.4133,-9.8409
950,-6.5454,-9.8795
951,-6.7052,-9.8239
952,-6.7817,-9.702
953,-6.7083,-9.5831
954,-6.5537,-9.5389
955,-6.4384,-9.5935
956,-6.3697,-9.6934
957,-6.2747,-9.7742
958,-6.1817,-9.8438
959,-6.1977,-9.9333
960,-6.3401,-10.0052
961,-6.5188,-9.9982
962,-6.64,-9.9277
963,-6.6734,-9.8683
964,-6.6515,-9.8587
965,-6.6379,-9.8703
966,-6.6803,-9.853
967,-6.7678,-9.7867
968,-6.8442,-9.701
969,-6.8632,-9.6522
970,-6.8266,-9.6691
971,-6.7777,-9.7349
972,-6.7796,-9.8177
973,-6.8727,-9.8876
974,-7.0239,-9.9168
975,-7.1568,-9.883
976,-7.2338,-9.7966
977,-7.2746,-9.7242
978,-7.3072,-9.7256
979,-7.3225,-9.7824
980,-7.2895,-9.8329
981,-7.2159,-9.8381
982,-7.1529,-9.8007
983,-7.1359,-9.7452
984,-7.1615,-9.6969
985,-7.2156,-9.6796
986,-7.2926,-9.704
987,-7.3939,-9.7513
988,-7.5326,-9.791
989,-7.7189,-9.7999
990,-7.8943,-9.7742
991,-7.9522,-9.7452
992,-7.8718,-9.7538
993,-7.742,-9.792
994,-7.6647,-9.8131
995,-7.7123,-9.7979
996,-7.9083,-9.7599
997,-8.1871,-9.7182
998,-8.4236,-9.7012
999,-8.5448,-9.733
1000,-8.59,-9.8036
1001,-8.6235,-9.8692
1002,-8.6246,-9.8865
1003,-8.537,-9.8563
1004,-8.366,-9.8187
1005,-8.1813,-9.8047
1006,-8.0824,-9.8064
1007,-8.1378,-9.7937
1008,-8.3073,-9.7533
1009,-8.4646,-9.6988
1010,-8.515,-9.6491
1011,-8.4571,-9.6198
1012,-8.3529,-9.6232
1013,-8.2798,-9.6548
1014,-8.2869,-9.6868
1015,-8.3718,-9.6925
1016,-8.4863,-9.6742
1017,-8.555,-9.6561
1018,-8.5228,-9.6608
1019,-8.3961,-9.6873
1020,-8.269,-9.7152
1021,-8.3104,-9.7381
1022,-8.5924,-9.7543
1023,-8.9596,-9.7372
1024,-9.2046,-9.6864
1025,-9.2794,-9.672
1026,-9.2767,-9.7289
1027,-9.3089,-9.7608
1028,-9.4449,-9.6743
1029,-9.7082,-9.5456
1030,-10.0264,-9.5109
1031,-10.2277,-9.5745
1032,-10.2155,-9.6406
1033,-10.0717,-9.6486
1034,-9.942,-9.6083
1035,-9.9066,-9.553
1036,-9.9625,-9.5112
1037,-10.0875,-9.5111
1038,-10.2846,-9.5669
1039,-10.53,-9.6557
1040,-10.7298,-9.727
1041,-10.8029,-9.7455
1042,-10.7711,-9.7214
1043,-10.7008,-9.6835
1044,-10.6133,-9.6321
1045,-10.5127,-9.5665
1046,-10.4381,-9.5387
1047,-10.4485,-9.6118
1048,-10.5635,-9.7657
1049,-10.7291,-9.9144
1050,-10.8605,-10.0067
1051,-10.9047,-10.0506
1052,-10.8606,-10.0759
1053,-10.7671,-10.1162
1054,-10.6855,-10.1933
1055,-10.6708,-10.3064
1056,-10.7424,-10.4335
1057,-10.8872,-10.5406
1058,-11.0527,-10.6171
1059,-11.1426,-10.7055
1060,-11.0846,-10.8505
1061,-10.8951,-11.0312
1062,-10.6561,-11.1911
1063,-10.4578,-11.3139
1064,-10.3575,-11.4282
1065,-10.3528,-11.5739
1066,-10.381,-11.7877
1067,-10.3659,-12.0716
1068,-10.2841,-12.3751
1069,-10.1789,-12.6453
1070,-10.0921,-12.8534
1071,-10.0135,-12.97
1072,-9.9158,-12.9859
1073,-9.7866,-12.9478
1074,-9.6416,-12.9262
1075,-9.547,-12.9556
1076,-9.5623,-13.0167
1077,-9.656,-13.0659
1078,-9.7497,-13.0689
1079,-9.8053,-13.0265
1080,-9.8124,-12.9744
1081,-9.7527,-12.9483
1082,-9.6367,-12.9712
1083,-9.5369,-13.0598
1084,-9.525,-13.2029
1085,-9.5985,-13.3496
1086,-9.7125,-13.4423
1087,-9.818,-13.4588
1088,-9.8562,-13.4407
1089,-9.8031,-13.4803
1090,-9.7143,-13.6369
1091,-9.6598,-13.8586
1092,-9.6494,-14.0238
1093,-9.6603,-14.0645
1094,-9.6862,-14.0176
1095,-9.7111,-13.9621
1096,-9.7059,-13.9399
1097,-9.6864,-13.9471
1098,-9.6938,-13.9598
1099,-9.7089,-13.9398
1100,-9.6613,-13.8548
1101,-9.5155,-13.7192
1102,-9.3099,-13.5965
1103,-9.1412,-13.5397
1104,-9.1095,-13.5163
1105,-9.2116,-13.4517
1106,-9.3008,-13.3598
1107,-9.2252,-13.3323
1108,-8.9765,-13.4167
1109,-8.6829,-13.5708
1110,-8.5119,-13.7111
1111,-8.5661,-13.7798
1112,-8.7919,-13.7505
1113,-8.9944,-13.6097
1114,-9.0095,-13.4045
1115,-8.8527,-13.2597
1116,-8.6663,-13.2642
1117,-8.5682,-13.3796
1118,-8.5753,-13.4991
1119,-8.6124,-13.5533
1120,-8.5812,-13.5473
1121,-8.4512,-13.5345
1122,-8.2811,-13.5748
1123,-8.1427,-13.6895
1124,-8.0415,-13.8339
1125,-7.9398,-13.9278
1126,-7.8408,-13.9145
1127,-7.8033,-13.7882
1128,-7.8619,-13.6038
1129,-7.9747,-13.4533
1130,-8.0604,-13.3943
1131,-8.0569,-13.4282
1132,-7.9713,-13.5379
1133,-7.8622,-13.6914
1134,-7.744,-13.8312
1135,-7.5823,-13.9076
1136,-7.4014,-13.9147
1137,-7.2878,-13.8772
1138,-7.2822,-13.8292
1139,-7.36,-13.8202
1140,-7.485,-13.8839
1141,-7.6007,-13.9871
1142,-7.6294,-14.0624
1143,-7.5424,-14.0833
1144,-7.4001,-14.0727
1145,-7.3024,-14.0606
1146,-7.3112,-14.0615
1147,-7.4106,-14.0784
1148,-7.5306,-14.1012
1149,-7.6016,-14.1116
1150,-7.5878,-14.0933
1151,-7.5021,-14.0286
1152,-7.4021,-13.9144
1153,-7.3535,-13.7867
1154,-7.3936,-13.6957
1155,-7.5114,-13.655
1156,-7.6559,-13.6435
1157,-7.7758,-13.6554
1158,-7.8319,-13.7097
1159,-7.7907,-13.8046
1160,-7.673,-13.9107
1161,-7.5744,-14.0299
1162,-7.5857,-14.1946
1163,-7.6974,-14.389
1164,-7.8142,-14.5232
1165,-7.8733,-14.5011
1166,-7.9,-14.3059
1167,-7.9425,-14.0317
1168,-8.022,-13.8205
1169,-8.134,-13.7421
1170,-8.2528,-13.7578
1171,-8.3468,-13.7937
1172,-8.3931,-13.8081
1173,-8.3783,-13.8021
1174,-8.3037,-13.8017
1175,-8.2149,-13.8252
1176,-8.2207,-13.8717
1177,-8.3889,-13.9241
1178,-8.6005,-13.9451
1179,-8.6357,-13.9047
1180,-8.4279,-13.8036
1181,-8.1208,-13.6406
1182,-7.879,-13.4194
1183,-7.7647,-13.1953
1184,-7.7871,-13.0332
1185,-7.9063,-12.9362
1186,-8.0097,-12.8607
1187,-8.009,-12.7747
1188,-7.9223,-12.6822
1189,-7.83,-12.6049
1190,-7.7926,-12.5655
1191,-7.8125,-12.5867
1192,-7.848,-12.666
1193,-7.862,-12.7585
1194,-7.8543,-12.8154
1195,-7.8303,-12.8123
1196,-7.7712,-12.7326
1197,-7.6736,-12.5686
1198,-7.5827,-12.3542
1199,-7.557,-12.163
1200,-7.6134,-12.0398
1201,-7.7116,-11.9595
1202,-7.7965,-11.874
1203,-7.8571,-11.757
1204,-7.9076,-11.6151
1205,-7.9124,-11.497
1206,-7.8226,-11.4665
1207,-7.6784,-11.5484
1208,-7.5713,-11.7068
1209,-7.5375,-11.8636
1210,-7.535,-11.9423
1211,-7.5061,-11.9102
1212,-7.4516,-11.7911
1213,-7.417,-11.6539
1214,-7.4223,-11.5588
1215,-7.4478,-11.5069
1216,-7.4666,-11.4607
1217,-7.459,-11.392
1218,-7.408,-11.3083
1219,-7.3044,-11.2529
1220,-7.1754,-11.2742
1221,-7.0894,-11.393
1222,-7.0916,-11.5874
1223,-7.1618,-11.791
1224,-7.2611,-11.9276
1225,-7.3594,-11.9622
1226,-7.415,-11.9107
1227,-7.4221,-11.8303
1228,-7.4784,-11.7921
1229,-7.6703,-11.8179
1230,-7.9038,-11.8694
1231,-7.9965,-11.918
1232,-7.9014,-11.9709
1233,-7.7305,-12.0403
1234,-7.5932,-12.1331
1235,-7.4902,-12.2525
1236,-7.3875,-12.3916
1237,-7.3153,-12.5327
1238,-7.3287,-12.6434
1239,-7.4225,-12.69
1240,-7.5334,-12.6779
1241,-7.5986,-12.6543
1242,-7.6081,-12.6558
1243,-7.6191,-12.6732
1244,-7.6997,-12.6817
1245,-7.8501,-12.6852
1246,-8.0004,-12.7024
1247,-8.0738,-12.7273
1248,-8.0335,-12.7347
1249,-7.9063,-12.7071
1250,-7.7779,-12.6418
1251,-7.7333,-12.5543
1252,-7.7778,-12.4927
1253,-7.8288,-12.5151
1254,-7.7992,-12.6226
1255,-7.6939,-12.7495
1256,-7.6031,-12.8385
1257,-7.582,-12.8832
1258,-7.5932,-12.8988
1259,-7.593,-12.9007
1260,-7.5936,-12.9084
1261,-7.6212,-12.9314
1262,-7.6946,-12.9575
1263,-7.857,-12.9723
1264,-8.1129,-12.9605
1265,-8.3248,-12.9105
1266,-8.3184,-12.855
1267,-8.0948,-12.8459
1268,-7.8236,-12.8731
1269,-7.6451,-12.878
1270,-7.5653,-12.8285
1271,-7.5228,-12.7323
1272,-7.5019,-12.6123
1273,-7.5422,-12.5083
1274,-7.6346,-12.4713
1275,-7.7026,-12.5273
1276,-7.7065,-12.6385
1277,-7.6786,-12.7123
1278,-7.6519,-12.6748
1279,-7.6197,-12.544
1280,-7.5605,-12.4095
1281,-7.481,-12.3361
1282,-7.433,-12.3227
1283,-7.4637,-12.3227
1284,-7.5726,-12.2675
1285,-7.7274,-12.1329
1286,-7.8765,-11.9925
1287,-7.9595,-11.942
1288,-7.943,-11.9912
1289,-7.8469,-12.0746
1290,-7.7381,-12.1358
1291,-7.6755,-12.1634
1292,-7.643,-12.1735
1293,-7.5771,-12.1907
1294,-7.4658,-12.2311
1295,-7.3637,-12.2797
1296,-7.3183,-12.2944
1297,-7.3374,-12.2497
1298,-7.3969,-12.1619
1299,-7.4454,-12.0647
1300,-7.4557,-11.9937
1301,-7.478,-11.9863
1302,-7.5491,-12.0475
1303,-7.5909,-12.1095
1304,-7.52,-12.0876
1305,-7.3824,-11.9826
1306,-7.2719,-11.8718
1307,-7.2112,-11.8039
1308,-7.1744,-11.7546
1309,-7.1462,-11.6856
1310,-7.1216,-11.6079
1311,-7.0971,-11.5723
1312,-7.0791,-11.6034
1313,-7.0711,-11.6647
1314,-7.0622,-11.6925
1315,-7.0501,-11.6435
1316,-7.051,-11.5139
1317,-7.0648,-11.3376
1318,-7.0567,-11.17
1319,-7.0253,-11.0533
1320,-7.0615,-10.9854
1321,-7.2336,-10.9245
1322,-7.4549,-10.8562
1323,-7.5798,-10.8453
1324,-7.5482,-10.9421
1325,-7.3872,-11.0775
1326,-7.1813,-11.1391
1327,-7.0374,-11.093
1328,-7.0138,-10.9773
1329,-7.0906,-10.8301
1330,-7.1886,-10.6741
1331,-7.209,-10.5411
1332,-7.1067,-10.4526
1333,-6.9449,-10.4112
1334,-6.8542,-10.4301
1335,-6.9031,-10.5222
1336,-7.0211,-10.6718
1337,-7.0895,-10.835
1338,-7.0715,-10.9542
1339,-7.0088,-10.9872
1340,-6.9512,-10.9349
1341,-6.9409,-10.8335
1342,-7.0129,-10.7315
1343,-7.1632,-10.6701
1344,-7.3203,-10.6631
1345,-7.3706,-10.689
1346,-7.2641,-10.7101
1347,-7.1099,-10.7118
1348,-7.0717,-10.7214
1349,-7.1713,-10.7679
1350,-7.3039,-10.8344
1351,-7.4074,-10.8928
1352,-7.5122,-10.9636
1353,-7.6678,-11.0664
1354,-7.8797,-11.1386
1355,-8.0653,-11.1127
1356,-8.088,-11.0202
1357,-7.9062,-10.9305
1358,-7.6428,-10.8651
1359,-7.4616,-10.8177
1360,-7.4311,-10.8007
1361,-7.5254,-10.8489
1362,-7.6871,-10.9603
1363,-7.8753,-11.0521
1364,-8.0842,-11.0359
1365,-8.305,-10.9188
1366,-8.4792,-10.7879
1367,-8.5413,-10.721
1368,-8.4981,-10.7285
1369,-8.4267,-10.7641
1370,-8.4028,-10.7703
1371,-8.4435,-10.7065
1372,-8.512,-10.5673
1373,-8.5742,-10.397
1374,-8.6329,-10.2645
1375,-8.7027,-10.2097
1376,-8.7853,-10.2208
1377,-8.8756,-10.261
1378,-8.9768,-10.3015
1379,-9.0837,-10.3288
1380,-9.1577,-10.3406
1381,-9.157,-10.3338
1382,-9.0974,-10.2802
1383,-9.065,-10.1432
1384,-9.1402,-9.9458
1385,-9.307,-9.7729
1386,-9.4606,-9.6781
1387,-9.4937,-9.63
1388,-9.4105,-9.5692
1389,-9.3489,-9.4899
1390,-9.4035,-9.4096
1391,-9.5111,-9.2886
1392,-9.5961,-9.0955
1393,-9.6589,-8.9047
1394,-9.693,-8.81
1395,-9.6854,-8.8026
1396,-9.6754,-8.8187
1397,-9.702,-8.8444
1398,-9.7258,-8.9018
1399,-9.6713,-8.9674
1400,-9.5397,-8.9621
1401,-9.4342,-8.8502
1402,-9.4469,-8.7142
1403,-9.5427,-8.6706
1404,-9.6086,-8.7471
1405,-9.5866,-8.8772
1406,-9.4981,-8.9785
1407,-9.4007,-9.0154
1408,-9.3697,-8.9963
1409,-9.4433,-8.9399
1410,-9.5592,-8.8783
1411,-9.608,-8.8608
1412,-9.5488,-8.895
1413,-9.4291,-8.9266
1414,-9.3137,-8.9319
1415,-9.235,-8.965
1416,-9.1944,-9.076
1417,-9.1841,-9.2529
1418,-9.195,-9.4596
1419,-9.2145,-9.6548
1420,-9.226,-9.7735
1421,-9.2192,-9.7831
1422,-9.2026,-9.7401
1423,-9.2039,-9.7248
1424,-9.2502,-9.7646
1425,-9.3315,-9.8321
1426,-9.3851,-9.864
1427,-9.3566,-9.8207
1428,-9.274,-9.7473
1429,-9.2121,-9.7236
1430,-9.1906,-9.7831
1431,-9.1733,-9.8981
1432,-9.155,-9.9964
1433,-9.1779,-9.9966
1434,-9.2447,-9.846
1435,-9.2562,-9.5566
1436,-9.1317,-9.2337
1437,-8.9595,-9.0275
1438,-8.9012,-9.0158
1439,-8.9946,-9.1461
1440,-9.1345,-9.288
1441,-9.2087,-9.334
1442,-9.1918,-9.2684
1443,-9.1288,-9.1671
1444,-9.0779,-9.136
1445,-9.056,-9.2268
1446,-9.0451,-9.3953
1447,-9.039,-9.5426
1448,-9.0151,-9.6015
1449,-8.923,-9.594
1450,-8.7805,-9.5841
1451,-8.6956,-9.5879
1452,-8.7479,-9.5878
1453,-8.894,-9.5892
1454,-9.0053,-9.6171
1455,-9.0013,-9.6914
1456,-8.9248,-9.812
1457,-8.8657,-9.9532
1458,-8.8622,-10.0847
1459,-8.9216,-10.2036
1460,-9.0647,-10.3222
1461,-9.2574,-10.4161
1462,-9.3611,-10.4347
1463,-9.2441,-10.3771
1464,-8.9385,-10.3069
1465,-8.6375,-10.2698
1466,-8.5329,-10.2373
1467,-8.6565,-10.1726
1468,-8.8573,-10.1114
1469,-8.9482,-10.1401
1470,-8.8678,-10.3097
1471,-8.6969,-10.5733
1472,-8.5742,-10.8125
1473,-8.5804,-10.9375
1474,-8.6706,-10.9467
1475,-8.7416,-10.902
1476,-8.7517,-10.8627
1477,-8.7583,-10.8387
1478,-8.819,-10.8125
1479,-8.8794,-10.7946
1480,-8.8209,-10.8079
1481,-8.5991,-10.8402
1482,-8.3142,-10.8717
1483,-8.1204,-10.9058
1484,-8.0578,-10.9338
1485,-8.0765,-10.9435
1486,-8.166,-10.9693
1487,-8.3223,-11.0412
1488,-8.4574,-11.1272
1489,-8.4417,-11.1927
1490,-8.2385,-11.2425
1491,-7.9668,-11.2796
1492,-7.8204,-11.2902
1493,-7.9086,-11.2816
1494,-8.1476,-11.3015
1495,-8.3593,-11.3751
1496,-8.47,-11.4548
1497,-8.5138,-11.4765
1498,-8.4958,-11.4377
1499,-8.3986,-11.3987
1500,-8.2677,-11.4078
1501,-8.1609,-11.4338
1502,-8.0652,-11.4057
1503,-7.9557,-11.3148
1504,-7.8805,-11.2354
1505,-7.904,-11.2466
1506,-8.0096,-11.353
1507,-8.1475,-11.4764
1508,-8.3052,-11.5281
1509,-8.445,-11.4968
1510,-8.4826,-11.4553
1511,-8.382,-11.4686
1512,-8.1839,-11.5137
1513,-7.9695,-11.5188
1514,-7.8228,-11.4474
1515,-7.7631,-11.3198
1516,-7.7496,-11.1891
1517,-7.7641,-11.1129
1518,-7.8081,-11.1251
1519,-7.8508,-11.2077
1520,-7.8293,-11.2895
1521,-7.6782,-11.2927
1522,-7.4412,-11.197
1523,-7.3342,-11.0691
1524,-7.5151,-11.0046
1525,-7.8595,-11.0338
1526,-8.1014,-11.0953
1527,-8.0937,-11.0835
1528,-7.887,-10.9497
1529,-7.6293,-10.7705
1530,-7.4304,-10.6697
1531,-7.3212,-10.6935
1532,-7.2818,-10.7878
1533,-7.2729,-10.8572
1534,-7.2642,-10.8395
1535,-7.242,-10.7538
1536,-7.2315,-10.6682
1537,-7.3031,-10.6218
1538,-7.4837,-10.6027
1539,-7.6924,-10.5829
1540,-7.8176,-10.5429
1541,-7.8047,-10.469
1542,-7.6581,-10.3552
1543,-7.4157,-10.2086
1544,-7.1497,-10.0633
1545,-6.9658,-9.9963
1546,-6.9553,-10.0512
1547,-7.1315,-10.1407
1548,-7.3923,-10.1319
1549,-7.56,-10.0033
1550,-7.5208,-9.8425
1551,-7.3269,-9.7377
1552,-7.1378,-9.7202
1553,-7.0874,-9.7813
1554,-7.2152,-9.9122
1555,-7.4515,-10.0819
1556,-7.6472,-10.2103
1557,-7.6895,-10.2351
1558,-7.5972,-10.1754
1559,-7.4657,-10.1133
1560,-7.3465,-10.1517
1561,-7.2264,-10.3347
1562,-7.124,-10.5585
1563,-7.1219,-10.6324
1564,-7.2644,-10.4719
1565,-7.4912,-10.1766
1566,-7.6864,-9.9352
1567,-7.7607,-9.9031
1568,-7.7075,-10.0995
1569,-7.6096,-10.3753
1570,-7.5598,-10.541
1571,-7.5541,-10.5251
1572,-7.5091,-10.3887
1573,-7.4169,-10.251
1574,-7.4038,-10.2094
1575,-7.5416,-10.2807
1576,-7.7039,-10.4113
1577,-7.7309,-10.5336
1578,-7.6331,-10.5925
1579,-7.5623,-10.561
1580,-7.6638,-10.4683
1581,-7.9401,-10.3771
1582,-8.2169,-10.3132
1583,-8.3144,-10.2558
1584,-8.2479,-10.197
1585,-8.1657,-10.1678
1586,-8.1523,-10.1945
1587,-8.1859,-10.2571
1588,-8.2242,-10.3102
1589,-8.2473,-10.327
1590,-8.2472,-10.3264
1591,-8.2173,-10.3599
1592,-8.1386,-10.4516
1593,-7.9998,-10.5677
1594,-7.8514,-10.6588
1595,-7.79,-10.6893
1596,-7.8824,-10.6219
1597,-8.1012,-10.4592
1598,-8.2945,-10.2963
1599,-8.2985,-10.2381
1600,-8.1214,-10.2888
1601,-7.9293,-10.3617
1602,-7.8759,-10.3685
1603,-7.9992,-10.3053
1604,-8.193,-10.2412
1605,-8.2883,-10.2093
1606,-8.2459,-10.1749
1607,-8.1974,-10.1347
1608,-8.2559,-10.1501
1609,-8.3797,-10.2239
1610,-8.4495,-10.2503
1611,-8.4119,-10.1444
1612,-8.3284,-9.9381
1613,-8.2995,-9.7272
1614,-8.3566,-9.5954
1615,-8.445,-9.5899
1616,-8.5117,-9.6841
1617,-8.5457,-9.7577
1618,-8.5304,-9.7099
1619,-8.4644,-9.5804
1620,-8.4088,-9.4925
1621,-8.4192,-9.5373
1622,-8.4748,-9.7056
1623,-8.5241,-9.8693
1624,-8.5576,-9.8878
1625,-8.5965,-9.7463
1626,-8.6458,-9.5497
1627,-8.7012,-9.4176
1628,-8.7662,-9.3974
1629,-8.8239,-9.4465
1630,-8.8343,-9.4914
1631,-8.7889,-9.4975
1632,-8.7299,-9.4793
1633,-8.6855,-9.4776
1634,-8.6169,-9.5126
1635,-8.481,-9.5443
1636,-8.3238,-9.5193
1637,-8.2495,-9.4619
1638,-8.3083,-9.4632
1639,-8.4635,-9.5673
1640,-8.6523,-9.7095
1641,-8.8138,-9.7826
1642,-8.8925,-9.7425
1643,-8.8695,-9.6347
1644,-8.772,-9.5349
1645,-8.6531,-9.4963
1646,-8.5885,-9.5473
1647,-8.6579,-9.6793
1648,-8.8586,-9.817
1649,-9.0658,-9.8683
1650,-9.1418,-9.8287
1651,-9.0561,-9.7724
1652,-8.8959,-9.757
1653,-8.782,-9.7922
1654,-8.775,-9.8649
1655,-8.854,-9.955
1656,-8.955,-10.0415
1657,-9.0131,-10.1209
1658,-8.9957,-10.1962
1659,-8.9252,-10.2398
1660,-8.8589,-10.2313
1661,-8.8424,-10.2387
1662,-8.872,-10.3553
1663,-8.8937,-10.5542
1664,-8.8754,-10.722
1665,-8.8626,-10.8136
1666,-8.9075,-10.8688
1667,-8.9891,-10.9031
1668,-9.0366,-10.8816
1669,-9.0153,-10.8001
1670,-8.9859,-10.717
1671,-9.0341,-10.7045
1672,-9.1409,-10.7968
1673,-9.1978,-10.9597
1674,-9.1344,-11.1132
1675,-8.9615,-11.2098
1676,-8.7302,-11.2595
1677,-8.5336,-11.2815
1678,-8.4573,-11.2882
1679,-8.4659,-11.2913
1680,-8.4897,-11.2799
1681,-8.5744,-11.2335
1682,-8.7708,-11.1709
1683,-8.9783,-11.147
1684,-9.0273,-11.1974
1685,-8.8713,-11.3116
1686,-8.6392,-11.4496
1687,-8.4945,-11.5543
1688,-8.4815,-11.5601
1689,-8.5254,-11.4521
1690,-8.5465,-11.3112
1691,-8.5303,-11.2434
1692,-8.4984,-11.2826
1693,-8.4779,-11.3851
1694,-8.4936,-11.4865
1695,-8.5583,-11.5609
1696,-8.6882,-11.6266
1697,-8.8573,-11.6946
1698,-8.9357,-11.7319
1699,-8.806,-11.6939
1700,-8.5118,-11.5789
1701,-8.2038,-11.4422
1702,-7.9979,-11.3538
1703,-7.9372,-11.3394
1704,-8.0164,-11.3766
1705,-8.1696,-11.4306
1706,-8.2923,-11.4801
1707,-8.3204,-11.5482
1708,-8.2534,-11.6844
1709,-8.1259,-11.8518
1710,-8.0107,-11.9137
1711,-7.9758,-11.7966
1712,-8.0006,-11.5745
1713,-8.0199,-11.3909
1714,-8.0279,-11.3498
1715,-8.0541,-11.4453
1716,-8.0835,-11.5788
1717,-8.0612,-11.6568
1718,-7.9743,-11.6468
1719,-7.8901,-11.5667
1720,-7.8767,-11.477
1721,-7.9259,-11.4492
1722,-8.0,-11.4823
1723,-8.0893,-11.4868
1724,-8.1861,-11.4061
1725,-8.2838,-11.2935
1726,-8.4061,-11.2279
1727,-8.5509,-11.2343
1728,-8.6341,-11.298
1729,-8.5718,-11.3845
1730,-8.3972,-11.4507
1731,-8.2292,-11.4791
1732,-8.1273,-11.4895
1733,-8.048,-11.489
1734,-7.9538,-11.4502
1735,-7.881,-11.3679
1736,-7.8833,-11.2978
1737,-7.9857,-11.3097
1738,-8.1674,-11.4107
1739,-8.3339,-11.529
1740,-8.3826,-11.5758
1741,-8.3385,-11.5208
1742,-8.3198,-11.408
1743,-8.3659,-11.3073
1744,-8.4241,-11.2637
1745,-8.4784,-11.2741
1746,-8.5567,-11.2981
1747,-8.6264,-11.3089
1748,-8.5844,-11.3263
1749,-8.3849,-11.3707
1750,-8.1257,-11.4242
1751,-7.9689,-11.4543
1752,-7.9811,-11.4397
1753,-8.0627,-11.3737
1754,-8.0734,-11.2936
1755,-8.0112,-11.3002
1756,-7.988,-11.4642
1757,-8.0566,-11.7125
1758,-8.186,-11.8749
1759,-8.3902,-11.8584
1760,-8.6932,-11.7306
1761,-8.9692,-11.612
1762,-9.0217,-11.5533
1763,-8.8115,-11.5313
1764,-8.4911,-11.5063
1765,-8.2594,-11.4803
1766,-8.2356,-11.507
1767,-8.4111,-11.6013
1768,-8.6457,-11.6757
1769,-8.7357,-11.6489
1770,-8.585,-11.549
1771,-8.3224,-11.4565
1772,-8.1644,-11.4161
1773,-8.1797,-11.418
1774,-8.285,-11.425
1775,-8.3929,-11.4095
1776,-8.4657,-11.369
1777,-8.5009,-11.3203
1778,-8.5129,-11.2968
1779,-8.5019,-11.3169
1780,-8.4534,-11.3442
1781,-8.3804,-11.3238
1782,-8.3239,-11.2322
1783,-8.2828,-11.0603
1784,-8.2193,-10.83
1785,-8.1596,-10.6389
1786,-8.1862,-10.5863
1787,-8.3288,-10.6559
1788,-8.5337,-10.7416
1789,-8.7217,-10.7585
1790,-8.8305,-10.6927
1791,-8.8144,-10.596
1792,-8.6947,-10.5505
1793,-8.5812,-10.5905
1794,-8.5649,-10.6706
1795,-8.6342,-10.7497
1796,-8.719,-10.8335
1797,-8.7646,-10.9005
1798,-8.7414,-10.8912
1799,-8.6413,-10.7954
1800,-8.4995,-10.6889
1801,-8.3878,-10.6545
1802,-8.3486,-10.6952
1803,-8.3509,-10.7544
1804,-8.3454,-10.7872
1805,-8.3309,-10.7846
1806,-8.337,-10.7573
1807,-8.3741,-10.7262
1808,-8.4195,-10.7103
1809,-8.4391,-10.7047
1810,-8.4175,-10.6955
1811,-8.3647,-10.6892
1812,-8.308,-10.6903
1813,-8.2871,-10.6792
1814,-8.3314,-10.6479
1815,-8.4242,-10.6331
1816,-8.5148,-10.6803
1817,-8.568,-10.7695
1818,-8.5792,-10.8183
1819,-8.5585,-10.7778
1820,-8.5314,-10.6863
1821,-8.5236,-10.603
1822,-8.5219,-10.5423
1823,-8.4943,-10.5128
1824,-8.4441,-10.5439
1825,-8.3892,-10.6175
1826,-8.3285,-10.662
1827,-8.273,-10.6498
1828,-8.2385,-10.614
1829,-8.1929,-10.568
1830,-8.1227,-10.5041
1831,-8.1213,-10.4561
1832,-8.2511,-10.4686
1833,-8.3901,-10.5227
1834,-8.3835,-10.565
1835,-8.2354,-10.5857
1836,-8.0709,-10.6231
1837,-8.0164,-10.7102
1838,-8.1097,-10.8423
1839,-8.2778,-10.9778
1840,-8.4022,-11.0618
1841,-8.3982,-11.0754
1842,-8.2906,-11.0576
1843,-8.2123,-11.0554
1844,-8.2487,-11.0612
1845,-8.3421,-11.0189
1846,-8.3964,-10.9095
1847,-8.4008,-10.7947
1848,-8.3967,-10.7238
1849,-8.3514,-10.6821
1850,-8.2048,-10.6826
1851,-8.0422,-10.7937
1852,-8.0252,-11.0047
1853,-8.1796,-11.164
1854,-8.3873,-11.1484
1855,-8.5251,-11.0185
1856,-8.5547,-10.9266
1857,-8.5076,-10.9528
1858,-8.4165,-11.0686
1859,-8.2577,-11.1634
1860,-7.9907,-11.1191
1861,-7.6761,-10.9566
1862,-7.4638,-10.8635
1863,-7.4564,-10.9807
1864,-7.633,-11.2322
1865,-7.8592,-11.4584
1866,-7.9624,-11.6061
1867,-7.8572,-11.6896
1868,-7.6359,-11.6763
1869,-7.5179,-11.5192
1870,-7.6486,-11.2467
1871,-7.9549,-10.9571
1872,-8.2153,-10.7682
1873,-8.2579,-10.7472
1874,-8.1078,-10.8431
1875,-7.9546,-10.9579
1876,-7.9607,-11.0533
1877,-8.1085,-11.1246
1878,-8.2603,-11.1444
1879,-8.3085,-11.0712
1880,-8.2165,-10.9213
1881,-8.0136,-10.8094
1882,-7.8294,-10.8375
1883,-7.8145,-10.9656
1884,-7.9552,-11.0592
1885,-8.1004,-11.0384
1886,-8.1534,-10.9218
1887,-8.0844,-10.7454
1888,-7.8986,-10.5635
1889,-7.7241,-10.5088
1890,-7.7486,-10.6646
1891,-7.9777,-10.9092
1892,-8.205,-11.0483
1893,-8.2707,-11.0373
1894,-8.2147,-10.9722
1895,-8.1518,-10.9391
1896,-8.1475,-10.9552
1897,-8.2159,-11.0013
1898,-8.3094,-11.0325
1899,-8.3394,-10.9797
1900,-8.279,-10.8117
1901,-8.1805,-10.5954
1902,-8.104,-10.4383
1903,-8.1013,-10.3814
1904,-8.185,-10.3909
1905,-8.2935,-10.4191
1906,-8.3501,-10.4383
1907,-8.3369,-10.4363
1908,-8.292,-10.3925
1909,-8.2538,-10.2642
1910,-8.2404,-10.0424
1911,-8.2712,-9.8148
1912,-8.3544,-9.7141
1913,-8.4573,-9.7925
1914,-8.5514,-9.9844
1915,-8.6886,-10.1942
1916,-8.939,-10.3628
1917,-9.2291,-10.4331
1918,-9.3719,-10.3456
1919,-9.2724,-10.1173
1920,-9.0377,-9.8634
1921,-8.8874,-9.7075
1922,-8.9375,-9.691
1923,-9.1008,-9.7645
1924,-9.229,-9.8457
1925,-9.2751,-9.8841
1926,-9.2949,-9.8874
1927,-9.3419,-9.8847
1928,-9.3966,-9.8693
1929,-9.4265,-9.8067
1930,-9.4561,-9.7012
1931,-9.4971,-9.6268
1932,-9.5069,-9.6561
1933,-9.4596,-9.7699
1934,-9.3518,-9.87
1935,-9.195,-9.877
1936,-9.0666,-9.7677
1937,-9.0626,-9.5432
1938,-9.1918,-9.2784
1939,-9.3719,-9.1503
1940,-9.5029,-9.276
1941,-9.5496,-9.5886
1942,-9.5954,-9.9288
1943,-9.7462,-10.1674
1944,-9.9489,-10.2425
1945,-10.028,-10.1679
1946,-9.9057,-10.0248
1947,-9.6895,-9.9155
1948,-9.5534,-9.9044
1949,-9.5805,-9.9831
1950,-9.7176,-10.0915
1951,-9.8494,-10.1842
1952,-9.8986,-10.2521
1953,-9.8713,-10.2944
1954,-9.852,-10.325
1955,-9.9706,-10.3854
1956,-10.2651,-10.4966
1957,-10.5875,-10.612
1958,-10.767,-10.6598
1959,-10.8063,-10.6353
1960,-10.8081,-10.6151
1961,-10.7863,-10.6789
1962,-10.6722,-10.8481
1963,-10.4817,-11.0651
1964,-10.3361,-11.2047
1965,-10.2952,-11.1771
1966,-10.3049,-11.019
1967,-10.3236,-10.8415
1968,-10.3621,-10.7248
1969,-10.3946,-10.6928
1970,-10.3721,-10.7446
1971,-10.3287,-10.8553
1972,-10.3607,-10.9629
1973,-10.511,-11.0023
1974,-10.7206,-10.9492
1975,-10.8902,-10.8445
1976,-10.9738,-10.7835
1977,-10.9919,-10.8332
1978,-10.9861,-10.9756
1979,-10.9895,-11.1582
1980,-11.0125,-11.3158
1981,-11.0364,-11.3521
1982,-11.0184,-11.2264
1983,-10.9344,-11.0287
1984,-10.8161,-10.8777
1985,-10.6833,-10.7936
1986,-10.4897,-10.7177
1987,-10.2289,-10.6108
1988,-10.0365,-10.5133
1989,-10.0555,-10.5173
1990,-10.2188,-10.6515
1991,-10.333,-10.8295
1992,-10.3344,-10.9348
1993,-10.29,-10.921
1994,-10.2581,-10.834
1995,-10.2421,-10.7098
1996,-10.2014,-10.5223
1997,-10.1297,-10.3074
1998,-10.0938,-10.1799
1999,-10.1329,-10.1903
